module framagit.org/meymard/curriculum-vitae.go

go 1.21.4

require (
	github.com/inconshreveable/mousetrap v1.1.0 // indirect
	github.com/spf13/cobra v1.8.0 // indirect
	github.com/spf13/pflag v1.0.5 // indirect
)
